Václav Procházka; 24/50 + 2/10
Václav Procházková; 32%
Jakub Pokorná; 68%
Petr Pospíšilová; 3/21
Jana Veselý; 4/7
Michal Veselý; 46/50
Marie Svobodová; 3/11
Michal Novotná; 16%
Alena Kučerová; 97%
Pavel Novák; 15/44
Lucie Marková; 40/92 + 13/30
Eva Dvořáková; 1/14
Hana Novotná; 1/1
Jan Černá; 42%
Petr Černý; 16/22
Miroslav Marek; 69%
