Tomáš Němec; 29% + 1% + 28%
Lenka Svoboda; 17/98 + 12/38
Milan Pospíšilová; 10% + 7%
Petr Procházková; 12/26 + 23/64
Kateřina Němec; 24% + 18% + 8%
Alena Novotný; 24%
Josef Veselá; 46%
Věra Novák; 10/22 + 14/50
Věra Černý; 6/21
Petr Němcová; 11/47
Jana Novák; 4% + 93%
Martin Veselá; 62%
Věra Novotná; 2/8
Tomáš Černá; 5% + 92%
Lucie Procházková; 7/20 + 7/56
