Lenka Novotný; 1% + 5%
Pavel Černá; 10/11
Lenka Horáková; 5/23
Věra Marková; 4/8
Lucie Němcová; 1/4 + 10/28
Milan Pospíšilová; 18%
František Němec; 75%
Kateřina Horáková; 90%
Pavel Němec; 24% + 12% + 27%
Alena Marková; 4/20
Václav Pospíšilová; 1/1
Michal Marková; 33% + 5% + 12%
Lenka Novotný; 20/21
Eva Horák; 34/41
