Miroslav Němcová; 31% + 46%
Martin Horák; 17/45
Hana Horák; 4% + 37%
Jaroslav Veselá; 17% + 28% + 4%
Jana Marek; 77%
Anna Horák; 80%
Jiří Pokorná; 10/34
Petr Dvořák; 63%
Václav Svobodová; 1/28
Jan Černá; 75%
Hana Novák; 7/36
Lenka Pospíšilová; 86%
Jaroslav Krejčí; 96%
František Pospíšilová; 35%
Milan Pospíšilová; 33% + 7% + 1%
Pavel Veselá; 32% + 20% + 28%
Miroslav Němec; 73%
Michal Němcová; 13/41
Lucie Novotná; 22% + 31% + 23%
