Pavel Novák ;  32%
Jakub Svoboda ;  6/66 + 18/52
Josef Novotný ;  59%
Marie Černá ;  18/38 + 2/8
Zdeněk Němcová ;  62%
Jakub Dvořáková ;  51%
Věra Kučera ;  13/35
Miroslav Novotný ;  7% + 6% + 1%
Kateřina Nováková ;  2%
Jan Horák ;  31%
Jana Dvořáková ;  10% + 32% + 26%
Josef Kučerová ;  8%
Alena Novotná ;  30% + 5% + 7%
Michal Kučera ;  2/56 + 15/82
Alena Horáková ;  5/15
