Hana Černá; 13% + 5% + 16%
Michal Kučera; 4% + 45%
Alena Krejčí; 25/26
Pavel Svoboda; 5/24
Lenka Krejčí; 7/18
Lenka Černý; 25% + 17% + 22%
Jakub Kučera; 6/16
Alena Němec; 3% + 18% + 25%
Lenka Němec; 1/1
Jan Pokorná; 63%
Milan Kučerová; 42%
