Věra Svoboda; 22%
Josef Marek; 4/7
Tomáš Pokorná; 55%
Václav Novák; 32%
Jakub Horáková; 42% + 42%
Petr Horáková; 52%
Petr Pokorná; 63%
Josef Novotný; 31/100 + 35/90
Michal Novák; 71%
Pavel Procházková; 2%
Kateřina Nováková; 18/48
Jaroslav Marková; 1/16
Jaroslav Marková; 23/64 + 25/74
Jakub Nováková; 2/4 + 34/86
