Milan Svobodová ;  20/35
Milan Pospíšilová ;  3% + 44%
Věra Krejčí ;  8/12
Hana Nováková ;  74%
Milan Novotná ;  47/48
Tomáš Novotný ;  30%
Jana Krejčí ;  4/38 + 5/56
Kateřina Marek ;  92%
Václav Marek ;  6/11
Jana Novotná ;  1/15
Věra Černá ;  1/1
Zdeněk Novák ;  66%
Tomáš Marek ;  14%
