Jakub Novotná; 3% + 28% + 21%
Petr Novák; 9/26 + 18/74
Jaroslav Procházková; 37% + 42%
Petr Novotná; 4% + 32% + 13%
Jaroslav Nováková; 20% + 6% + 10%
Hana Němcová; 36/45
Josef Horáková; 51%
Jiří Pospíšilová; 13% + 16%
Lenka Černá; 2/48
Marie Horáková; 13% + 7% + 5%
Petr Dvořáková; 31% + 30%
Zdeněk Procházková; 1% + 7%
Jan Nováková; 41% + 26%
Anna Černá; 10% + 15% + 29%
Jan Veselá; 15/17
Jana Novotný; 7% + 23%
František Marek; 12/12
Jiří Černý; 20% + 17% + 4%
