Tomáš Procházka ;  55%
Hana Krejčí ;  34% + 10%
Miroslav Dvořák ;  41% + 11%
Václav Novotná ;  63%
Alena Krejčí ;  29/30
Martin Kučerová ;  44%
Alena Horák ;  65%
Milan Veselá ;  9/50 + 29/84
Hana Procházka ;  16%
Jan Dvořáková ;  79%
Milan Svobodová ;  13% + 8%
