Jaroslav Novák ;  25% + 6% + 7%
Milan Dvořák ;  7%
Alena Novák ;  16/32
Václav Kučera ;  96%
Václav Procházka ;  27/30
Kateřina Pospíšilová ;  28/33
Hana Novotný ;  48%
Lucie Novotný ;  43% + 15%
Marie Horáková ;  34% + 32%
Josef Kučera ;  21/86 + 4/100
Miroslav Marková ;  36/82 + 27/74
Jana Novotný ;  11% + 23% + 13%
Petr Kučera ;  16% + 3%
Jakub Procházka ;  46%
Milan Kučerová ;  14% + 24%
Lenka Marková ;  91%
Jan Černý ;  63%
