Hana Horáková; 29% + 8%
Alena Kučera; 63%
Zdeněk Horák; 7/22
František Procházková; 3/44
Jiří Černá; 20% + 37%
Zdeněk Černý; 1% + 10%
František Marková; 0%
Petr Kučerová; 30% + 1%
Hana Krejčí; 28/41
Anna Horáková; 86%
Věra Svobodová; 20/74 + 8/26
