Jiří Veselý; 90%
Michal Marková; 60%
Josef Němec; 63%
Marie Dvořák; 10% + 5% + 16%
Anna Procházka; 1/20
Jan Nováková; 28%
Jan Černý; 2/35
Jakub Krejčí; 1/26
Tomáš Procházková; 13/32 + 11/66
Hana Pokorná; 5/6
Anna Kučerová; 4/17
Zdeněk Svoboda; 6% + 1%
Jan Kučerová; 40%
Alena Němcová; 0% + 53%
Pavel Kučera; 19% + 3%
