Martin Černý ;  35/44
Marie Kučerová ;  32% + 22% + 21%
Martin Horáková ;  3/16 + 16/54
Věra Dvořák ;  1/4
Petr Dvořáková ;  28/33
Václav Novotná ;  8% + 2% + 0%
Josef Dvořák ;  31% + 24% + 9%
František Pospíšilová ;  48% + 31%
Jiří Svoboda ;  35%
Martin Dvořák ;  3/3
Lenka Dvořáková ;  16/84 + 20/82
Lenka Veselá ;  80%
Jakub Kučerová ;  6/12
Miroslav Krejčí ;  27/40
Josef Pospíšilová ;  68%
Pavel Dvořák ;  76%
Tomáš Procházková ;  14/41
Lucie Němec ;  7/18
