Kateřina Nováková; 16/36
Pavel Dvořák; 5% + 23%
Petr Dvořáková; 22% + 23% + 9%
Marie Dvořáková; 30% + 62%
Pavel Horáková; 18/30
Lenka Marková; 29% + 13% + 1%
Pavel Horáková; 49%
Jakub Novotný; 67% + 2%
Miroslav Marková; 9% + 32%
Michal Procházka; 5/10 + 3/92
Tomáš Němec; 2% + 3%
Jana Procházková; 4/20
