Jan Pospíšilová; 16%
František Kučera; 2% + 14% + 4%
Petr Novotný; 2% + 7%
Josef Veselá; 5% + 1%
Hana Novotný; 38%
Michal Kučerová; 12%
Josef Dvořáková; 29/46
Petr Novotná; 21%
Martin Kučerová; 28% + 39%
Michal Kučerová; 51%
Marie Černá; 53%
