Jiří Veselá ;  5% + 1%
Petr Horák ;  32%
Michal Marek ;  60%
František Kučerová ;  28% + 18% + 10%
Miroslav Svobodová ;  8% + 1%
Jaroslav Nováková ;  14/60 + 30/82
Josef Horáková ;  27/58 + 26/94
Petr Svoboda ;  7% + 3%
Jaroslav Dvořák ;  54%
Alena Novotná ;  29%
Tomáš Nováková ;  12% + 2% + 1%
Václav Veselý ;  11/70 + 36/92
Milan Veselý ;  28/33
Hana Svoboda ;  13/48
Michal Černý ;  30%
