Marie Horáková; 7/37
Hana Dvořáková; 1% + 12% + 24%
Martin Novák; 16%
Lenka Veselý; 8% + 7% + 20%
Hana Novák; 82%
Zdeněk Horáková; 1/4 + 7/30
Anna Černá; 48/49
Věra Němcová; 15/74 + 26/88
Petr Novák; 1%
Kateřina Kučera; 8% + 47%
Václav Kučerová; 11%
