Jana Němec; 6/7
Eva Dvořáková; 80%
Zdeněk Pokorná; 47%
Jana Pokorná; 20/46 + 4/72
Kateřina Dvořák; 3%
Hana Dvořák; 81% + 11%
Jaroslav Horáková; 93%
Tomáš Němcová; 41/41
Jaroslav Marek; 8/60 + 48/100
Jiří Krejčí; 48%
Věra Marková; 73%
Pavel Pospíšilová; 21/94 + 5/92
Pavel Procházka; 32%
Zdeněk Němcová; 38%
Václav Procházka; 27% + 11% + 32%
Lenka Marková; 25%
Jaroslav Procházková; 7% + 0% + 5%
