Martin Černá ;  83%
Lucie Marek ;  9/44
Zdeněk Dvořáková ;  16/40 + 3/34
Miroslav Procházková ;  79%
Martin Dvořák ;  3/46 + 12/52
Zdeněk Procházková ;  1/34 + 28/74
Jakub Procházková ;  0% + 13% + 10%
Jiří Nováková ;  3/44
Jan Veselá ;  4% + 4% + 7%
Pavel Horáková ;  13% + 15% + 17%
Jan Veselá ;  17% + 27% + 20%
Zdeněk Veselá ;  19% + 29% + 26%
Hana Kučera ;  8%
Lucie Nováková ;  6/28
Jaroslav Kučera ;  5/41
