Jiří Horáková; 97%
Jaroslav Marek; 17% + 47%
Pavel Pokorná; 5%
Tomáš Pospíšilová; 18% + 58%
Hana Horák; 15/28
Jan Kučerová; 28% + 8% + 13%
Jan Marek; 31/38
Marie Marková; 1/33
Zdeněk Němec; 83%
Lucie Kučerová; 10%
Pavel Kučera; 25% + 33%
Jakub Novotný; 2/11
