Milan Procházka; 34/90 + 21/48
Marie Veselý; 46%
Miroslav Horák; 63% + 5%
Lenka Pospíšilová; 12/29
Alena Němcová; 11/27
Jan Pospíšilová; 0% + 16% + 19%
Anna Kučera; 17% + 12%
Milan Novotný; 66%
Anna Krejčí; 2/2
Jaroslav Svoboda; 10/92 + 42/94
