Lenka Veselá; 6%
Michal Pokorná; 10/42 + 2/34
Lenka Horáková; 18% + 24%
Věra Novotná; 17% + 9% + 14%
Pavel Svoboda; 10% + 8%
Lucie Krejčí; 15% + 6% + 20%
Pavel Kučerová; 70%
Pavel Novotná; 14/28
Tomáš Pokorná; 96%
Miroslav Procházka; 40%
Alena Novotná; 67%
Petr Marek; 33/50
Kateřina Novotný; 26% + 30% + 22%
Kateřina Černá; 13/16
Jan Novotný; 68%
Miroslav Svobodová; 1/23
