Milan Černá; 1/3
Jan Pospíšilová; 1%
Petr Kučerová; 47/47
Hana Procházková; 3/48
Jan Němcová; 7/8
Kateřina Procházková; 30/39
Pavel Kučerová; 39/44
Lenka Novotná; 8% + 1%
Tomáš Horák; 52%
Zdeněk Krejčí; 12% + 8%
Václav Nováková; 3/46 + 28/64
Hana Němcová; 29% + 30% + 11%
Miroslav Černý; 22/25
Lucie Veselá; 1/2 + 4/10
Tomáš Dvořáková; 5/86 + 39/92
Jan Svoboda; 42% + 54%
Martin Novotná; 20%
Josef Černý; 79%
