Petr Nováková; 31% + 22% + 30%
Jan Novotná; 93%
Lenka Kučerová; 25% + 19% + 25%
Michal Pokorná; 7/36
Lenka Nováková; 10/12
Tomáš Dvořák; 0%
Alena Procházková; 14% + 16% + 4%
Lenka Němec; 34/37
Jiří Němec; 11/74 + 3/12
Miroslav Veselá; 8% + 27% + 2%
Petr Němcová; 4/4
Zdeněk Němcová; 3% + 3% + 2%
Jakub Pospíšilová; 8% + 25% + 15%
Lenka Horáková; 5% + 45%
Martin Novotná; 4/8 + 24/52
Václav Novotná; 5/30 + 5/16
