Miroslav Černý; 30% + 24% + 3%
Lucie Horák; 7% + 73%
Jaroslav Horáková; 70%
Václav Němcová; 10/25
Pavel Veselá; 41/43
Hana Nováková; 70%
Lucie Dvořáková; 3%
Jakub Veselá; 4% + 4%
Zdeněk Horáková; 92%
Lenka Černá; 35/44
Miroslav Černý; 3/6
Marie Horák; 58%
Josef Novotná; 35% + 27%
Zdeněk Veselý; 8/11
Michal Němcová; 34/74 + 15/44
Zdeněk Novotný; 24%
Pavel Horáková; 12/38 + 9/98
Jakub Marková; 13/36 + 1/92
Hana Němec; 8/20 + 4/48
