Petr Novotný; 20%
Alena Kučerová; 86%
Alena Procházka; 11/24 + 3/16
Lucie Dvořáková; 3/22 + 4/100
Věra Němec; 28%
Kateřina Marek; 27/28
Martin Černý; 10%
Josef Nováková; 19% + 35%
Věra Procházková; 1/47
Jiří Pokorná; 74% + 9%
Jan Novák; 12/40 + 6/14
Michal Horáková; 7%
Jakub Procházková; 1/31
Hana Horák; 6/15
Jana Dvořáková; 18% + 62%
Jiří Nováková; 6/20 + 8/90
Miroslav Novák; 5/16 + 4/10
Lucie Pospíšilová; 1/23
Michal Veselá; 89%
