Jana Svobodová ;  14% + 1%
Jaroslav Němcová ;  18/23
Milan Němcová ;  37%
Josef Krejčí ;  62% + 24%
Jakub Marek ;  40%
Jan Marková ;  20% + 14% + 23%
Eva Pokorná ;  12/33
Miroslav Němec ;  3%
František Novotná ;  23% + 69%
Alena Pospíšilová ;  39/78 + 4/8
Jakub Novák ;  18/48
Jiří Veselý ;  44/98 + 7/96
Lucie Procházka ;  15/16
Věra Novotný ;  47% + 44%
Marie Horák ;  5/68 + 8/94
Václav Marek ;  74%
Josef Novák ;  5% + 3% + 27%
Václav Nováková ;  0%
