Václav Černá; 80%
Milan Nováková; 28% + 13%
Pavel Němec; 44%
Martin Procházka; 4/44
Věra Procházková; 96%
Anna Němec; 13/16
Anna Horáková; 26% + 30% + 23%
František Pokorná; 61%
Marie Pospíšilová; 11/32
Lucie Kučera; 18/90 + 4/24
Jaroslav Pokorná; 12% + 5% + 15%
