Eva Pospíšilová; 57%
Anna Krejčí; 28% + 14%
Lenka Kučera; 66%
Josef Horák; 27% + 27%
Lenka Marková; 4/16
Josef Horák; 89%
Jaroslav Marek; 5/30 + 12/36
Václav Němcová; 7%
Jakub Dvořáková; 33% + 19%
Jaroslav Horák; 33/35
Jana Horák; 16% + 12% + 20%
Jana Novotný; 15% + 17% + 21%
Hana Krejčí; 89%
