Michal Pokorná; 28/39
Jaroslav Procházka; 31% + 58%
Miroslav Svoboda; 1/22 + 22/64
Lenka Veselý; 2% + 17% + 9%
Tomáš Kučera; 3/12
Jana Horáková; 24% + 0% + 22%
Kateřina Němcová; 84%
Jaroslav Černý; 1/46
Jana Nováková; 59%
Lucie Pospíšilová; 24% + 31% + 28%
Jiří Marek; 15%
Jan Novotná; 29% + 33%
Alena Němec; 22%
Kateřina Veselý; 0% + 12%
Jaroslav Novotný; 67%
Michal Němec; 22/44 + 32/66
