Jaroslav Dvořák ;  5/12 + 21/68
Milan Svoboda ;  6/30 + 4/72
Jana Černý ;  96%
Lenka Pokorná ;  18/42 + 34/84
Alena Horák ;  55%
Marie Svoboda ;  26/34
Jakub Pokorná ;  8%
Anna Novotný ;  8/70 + 1/4
Jaroslav Horák ;  10/34
Martin Veselá ;  2/62 + 9/70
Jan Procházka ;  1/35
