Josef Svoboda; 2/10
František Novotný; 17% + 5%
Josef Němec; 16%
Milan Procházka; 13% + 3% + 31%
Michal Černý; 14%
Lenka Procházková; 82%
Miroslav Novák; 4/4
Kateřina Dvořák; 37%
Eva Procházka; 26% + 17%
Josef Pokorná; 22% + 29% + 0%
Jakub Horáková; 6/38 + 1/10
