Tomáš Svoboda; 10/48
Milan Nováková; 27%
Jiří Pokorná; 11/15
Eva Pokorná; 55%
Zdeněk Pokorná; 6/24
Eva Pokorná; 11% + 0% + 4%
Pavel Marek; 13/33
Marie Marková; 1% + 10% + 1%
Věra Černá; 22/37
Kateřina Novák; 10/36 + 17/72
Eva Dvořáková; 4/4
Jan Marková; 78%
Zdeněk Dvořák; 3/46
Jana Procházková; 22%
