Tomáš Veselá; 6/30 + 17/44
Martin Novák; 88%
Lucie Marek; 91%
Václav Němcová; 4/20 + 4/30
Jana Novotná; 5/22
Petr Dvořáková; 5% + 4%
Hana Černý; 4%
Anna Marková; 15/98 + 37/92
Věra Procházková; 55%
Jiří Němec; 23/50 + 28/74
Hana Novotná; 31% + 9%
Jakub Novák; 3/12
