Václav Novotný; 7% + 1% + 11%
Lenka Procházková; 2%
Marie Krejčí; 31/72 + 4/10
Lucie Krejčí; 16% + 2% + 32%
František Horáková; 10% + 3% + 2%
Lenka Pokorná; 13/18
František Veselý; 21% + 29% + 13%
Anna Černý; 1/5
Lenka Černý; 1/2 + 11/24
Jana Němec; 22/40
Věra Dvořáková; 21/50 + 35/76
Lucie Procházková; 7/24
Věra Horáková; 0% + 3%
Anna Černý; 24%
Tomáš Kučera; 76%
Václav Veselá; 7% + 32% + 28%
Jana Černá; 25/68 + 8/30
František Veselý; 5/32
