Tomáš Veselá ;  21/66 + 22/54
Milan Marek ;  20/44
Zdeněk Svoboda ;  99%
Michal Horáková ;  11% + 15% + 18%
Josef Dvořák ;  33/37
Kateřina Novotný ;  10/10
Věra Kučerová ;  16% + 30% + 30%
Zdeněk Marková ;  34/37
Milan Novotný ;  4/52 + 29/70
Miroslav Černý ;  24/44
