Jaroslav Horák; 11% + 78%
Milan Dvořáková; 9%
Josef Novotný; 38/86 + 12/70
Tomáš Pospíšilová; 14/84 + 22/44
Václav Novotná; 14% + 34%
Alena Procházková; 8% + 6% + 22%
Marie Novotný; 41% + 27%
Kateřina Dvořáková; 70%
Zdeněk Svoboda; 76% + 3%
Marie Černá; 20% + 1%
