Lenka Procházková; 12% + 5% + 19%
Věra Veselá; 71% + 22%
Milan Procházka; 35%
Petr Veselý; 29% + 21% + 21%
Anna Černá; 22% + 7% + 31%
Věra Nováková; 29/88 + 26/52
Miroslav Marková; 14/28 + 36/90
Pavel Němec; 22/39
Jan Černá; 96%
Hana Procházková; 11/13
Alena Veselá; 22% + 2% + 30%
Milan Černý; 67%
Jiří Krejčí; 32%
Marie Němec; 79%
