Martin Pospíšilová ;  6/18 + 25/74
Petr Nováková ;  9% + 48%
Michal Novotný ;  6/12
Eva Novotná ;  27% + 11% + 6%
Pavel Černý ;  5/88 + 17/70
Věra Veselý ;  49%
Alena Krejčí ;  13% + 10% + 26%
Jaroslav Procházková ;  2% + 23% + 19%
František Krejčí ;  15%
František Veselý ;  92% + 2%
František Černý ;  30%
Lenka Dvořák ;  59%
Jaroslav Novák ;  3/11
Miroslav Pokorná ;  8/24 + 16/36
Věra Marek ;  36%
František Veselá ;  25%
Tomáš Němcová ;  21% + 28% + 1%
