Zdeněk Nováková; 82%
Josef Němcová; 82%
Josef Němec; 86%
Jan Horáková; 6% + 26% + 23%
Pavel Němcová; 20% + 20% + 5%
Marie Dvořák; 8% + 22% + 3%
František Kučerová; 3/50
Anna Kučerová; 6%
Hana Veselá; 1/32
Milan Pokorná; 28%
Jiří Svoboda; 19/40
Petr Dvořáková; 6% + 9% + 32%
Josef Procházka; 16% + 27% + 27%
Jana Pokorná; 16% + 56%
Lenka Veselá; 96%
Lucie Němec; 20% + 45%
