Kateřina Krejčí ;  5/12 + 1/58
Michal Dvořáková ;  3/5
Alena Dvořáková ;  24%
Eva Dvořáková ;  22/22
Jan Horák ;  53%
Miroslav Pospíšilová ;  73%
Michal Veselý ;  5% + 23% + 28%
Jana Černá ;  12/30
Lenka Pokorná ;  73%
Jakub Horák ;  0% + 16% + 9%
Jan Kučera ;  19/36
Alena Dvořáková ;  1%
František Veselá ;  96%
Jana Marková ;  39%
