Zdeněk Novotná; 6% + 32% + 5%
Petr Veselý; 14/32
Anna Krejčí; 15%
Václav Procházka; 2% + 30% + 15%
Jiří Veselá; 9/40
Anna Horáková; 10% + 15% + 19%
Josef Krejčí; 3% + 21% + 7%
Hana Novotná; 10/39
Martin Pospíšilová; 46%
Martin Svoboda; 21% + 7% + 8%
Kateřina Němcová; 12/29
Hana Procházka; 24% + 21%
Lenka Veselý; 32% + 33%
Lucie Horák; 9/72 + 36/80
