Zdeněk Němec; 20/38
Václav Novotná; 16/80 + 5/12
Eva Procházka; 99%
Jana Marek; 65% + 3%
Jiří Němcová; 13% + 15% + 1%
Miroslav Novotná; 72%
Pavel Novák; 23/23
Věra Veselá; 48% + 30%
Marie Novotný; 50%
Pavel Novák; 41%
Alena Dvořáková; 18/29
Věra Nováková; 2/4
František Nováková; 6/34
Marie Kučera; 80%
