Pavel Dvořák; 8/54 + 9/38
Václav Černá; 5% + 53%
Petr Novotná; 17/58 + 5/64
Martin Černý; 12/45
Alena Marková; 46%
František Veselá; 49% + 4%
František Procházka; 14/46
Lucie Procházka; 2/4 + 1/92
Marie Pokorná; 3/10
Petr Svobodová; 4% + 1% + 17%
Pavel Černý; 77%
