Lenka Němcová; 28% + 14% + 9%
Marie Černý; 41/47
Jana Procházková; 19/84 + 8/18
Václav Krejčí; 13%
Lucie Svobodová; 23% + 16% + 13%
Martin Procházková; 24/50
Alena Svoboda; 70%
Hana Svobodová; 8/44
Alena Horák; 52%
Zdeněk Novotná; 20%
Petr Marková; 87%
Milan Černý; 55%
Věra Nováková; 16% + 7% + 20%
Jan Černá; 28%
