Milan Černý; 9%
Josef Novotný; 93%
Jan Procházka; 11/26 + 31/76
Jaroslav Svobodová; 76%
Věra Svoboda; 37/50
Pavel Horáková; 1% + 12% + 8%
Milan Procházková; 33/46
Kateřina Marková; 9/31
Pavel Pokorná; 2/2
Michal Veselý; 1/7
Alena Procházka; 97%
Pavel Marková; 12% + 6% + 18%
Milan Novák; 24%
Michal Marková; 76%
Václav Němec; 24/30
Martin Veselá; 9/11
Eva Svobodová; 6/15
