Jan Kučera; 22/49
Hana Němec; 11/34
Tomáš Pokorná; 85%
Anna Kučerová; 5/16
Martin Němec; 1/2 + 1/8
Tomáš Pokorná; 2/16
Lucie Procházková; 13/20
František Marková; 31% + 15% + 29%
Martin Kučerová; 43%
Marie Novotná; 2/10
Jiří Černá; 23%
Jiří Černý; 10/14
Eva Novák; 16/50 + 22/98
