Věra Marková ;  52%
Tomáš Krejčí ;  13% + 2%
Anna Horák ;  13%
Martin Veselý ;  39/43
Lenka Veselá ;  20%
Martin Novák ;  9/18 + 22/54
Anna Krejčí ;  67%
František Pokorná ;  25% + 9% + 11%
Josef Krejčí ;  10/12
Marie Procházka ;  14% + 6% + 24%
Kateřina Veselá ;  19% + 3% + 33%
Věra Svobodová ;  17%
Věra Pospíšilová ;  17/26
Josef Veselá ;  21%
Jan Pokorná ;  1% + 5% + 13%
Martin Horák ;  35/36
Eva Novotný ;  25% + 19% + 16%
Milan Dvořák ;  1/7
