Josef Horáková ;  9%
Miroslav Novotná ;  31/80 + 9/48
František Černý ;  18/92 + 4/14
Pavel Marek ;  15/21
Alena Marek ;  93%
Michal Dvořáková ;  36/80 + 16/34
Petr Kučera ;  10% + 18% + 27%
Václav Veselá ;  2% + 20% + 2%
Pavel Kučera ;  16/22
Hana Krejčí ;  25/76 + 24/54
Miroslav Svobodová ;  75%
Michal Kučera ;  4/9
Eva Horák ;  29/46
Václav Němec ;  4%
Jan Novotný ;  5% + 4% + 11%
Hana Pokorná ;  7/11
Kateřina Novotný ;  11% + 15%
Jakub Horáková ;  13% + 31% + 20%
Jiří Němec ;  48%
