Alena Černá ;  16% + 12% + 14%
Jiří Novotný ;  62% + 2%
Marie Novotný ;  31% + 11% + 21%
Milan Němcová ;  11/19
Tomáš Veselá ;  1/18 + 1/2
Milan Novotný ;  1/14 + 32/96
Hana Veselá ;  22%
Miroslav Marek ;  36/42
Tomáš Novotný ;  75%
Martin Horáková ;  11/49
Lucie Nováková ;  24/56 + 6/18
Jana Pospíšilová ;  23% + 21% + 22%
Lucie Kučera ;  66% + 22%
