Jiří Kučera; 20/92 + 31/94
František Procházka; 50%
Lenka Pospíšilová; 23% + 18% + 8%
Jana Svoboda; 23/43
Miroslav Dvořáková; 9/14
Petr Horák; 8%
Michal Dvořáková; 48/49
Jana Dvořák; 12/19
František Dvořáková; 2/64 + 13/42
Jakub Černá; 3/26 + 3/12
Alena Pospíšilová; 37/41
Martin Veselá; 88%
Kateřina Pokorná; 6%
Lucie Marek; 1/36
Jakub Pospíšilová; 1%
