Pavel Procházka ;  30%
Věra Horáková ;  1/7
Anna Černý ;  9/35
Václav Němec ;  33/38
Pavel Procházková ;  62%
Josef Novotný ;  8/20 + 28/66
Marie Svobodová ;  3% + 1% + 13%
Kateřina Kučera ;  6% + 32% + 25%
František Dvořáková ;  15/68 + 2/4
Kateřina Krejčí ;  95%
Miroslav Kučerová ;  39% + 54%
Jakub Nováková ;  14/58 + 21/52
Věra Nováková ;  12/24
