Jakub Pokorná ;  13%
Jaroslav Černý ;  7/16
Petr Marková ;  31%
Jiří Novotná ;  22% + 73%
Anna Dvořáková ;  20% + 24% + 23%
Věra Němec ;  4/36 + 19/64
Martin Procházka ;  11/60 + 5/38
Eva Svoboda ;  12%
Pavel Veselý ;  4/5
Tomáš Novák ;  5/47
Kateřina Marek ;  16/38
