Jan Dvořáková ;  11% + 14% + 0%
Hana Novák ;  10/19
Petr Němec ;  16%
Anna Černá ;  1/7
Anna Krejčí ;  3/45
Marie Němcová ;  10/56 + 25/90
Jaroslav Veselá ;  36%
Milan Černá ;  2/33
Michal Nováková ;  18%
Anna Marková ;  40% + 54%
