Zdeněk Svoboda; 15% + 10% + 30%
František Svoboda; 8% + 23%
Michal Dvořák; 9/10
Jan Procházka; 6/47
Kateřina Procházka; 20% + 25% + 32%
Jiří Veselá; 24%
Tomáš Kučera; 10% + 7%
Petr Svobodová; 25/35
Jaroslav Němcová; 7/40 + 8/62
Lucie Kučera; 9/44 + 15/66
Marie Nováková; 14% + 15%
Miroslav Němec; 6/13
Zdeněk Horák; 3% + 11%
Jakub Procházková; 2/56 + 19/50
Kateřina Marek; 3/6
