Tomáš Dvořáková; 11% + 21% + 3%
Lenka Pokorná; 48% + 2%
Václav Dvořáková; 75%
František Nováková; 70%
Jiří Horák; 44%
Hana Černý; 35% + 1%
Martin Horáková; 13/30 + 44/98
Jakub Novák; 11%
Lucie Procházková; 14% + 27%
Hana Marek; 17/88 + 2/8
Zdeněk Marková; 39% + 14%
Alena Černý; 11%
Eva Svobodová; 67%
Jana Procházka; 41% + 8%
Jakub Veselý; 1/2 + 16/40
Lenka Horák; 11% + 16% + 30%
Jakub Němec; 9/20
Lenka Nováková; 25/88 + 7/52
