Jaroslav Černý ;  15/49
František Novák ;  2/50 + 12/90
Hana Nováková ;  85%
Kateřina Krejčí ;  7/9
Eva Nováková ;  4/12
Tomáš Pospíšilová ;  94%
Alena Nováková ;  78%
Lenka Kučerová ;  70%
Martin Němcová ;  16/48 + 11/52
Pavel Svoboda ;  8/11
