Jaroslav Kučera; 35/38
Lucie Veselá; 14% + 22%
Kateřina Svobodová; 60%
Martin Pospíšilová; 3% + 95%
Václav Marek; 2/27
Miroslav Černá; 25%
Pavel Procházková; 14/18
Josef Kučerová; 14/23
Václav Novotný; 74%
Jaroslav Černá; 7%
