Anna Němec; 4/14
Eva Veselý; 14%
Zdeněk Horáková; 19%
Miroslav Nováková; 14% + 19% + 5%
Jakub Svoboda; 96%
Lucie Svobodová; 88%
Pavel Pokorná; 1% + 3%
Věra Kučerová; 93%
Věra Kučera; 14/84 + 6/60
Tomáš Procházková; 16/16
Eva Pospíšilová; 5/14
Milan Pospíšilová; 25/52 + 4/40
Eva Němec; 5/12 + 13/34
Josef Němec; 78%
