Martin Procházka; 2/6
Jana Černá; 1/6 + 11/30
Josef Novotná; 14/30 + 47/94
Michal Svobodová; 9/14
Marie Černá; 22% + 12% + 2%
Jaroslav Černá; 25/100 + 10/90
Jan Marek; 63%
Lucie Dvořáková; 21% + 15% + 21%
Věra Němec; 16/22
František Procházková; 12% + 1% + 31%
Anna Novotná; 1% + 2%
Lenka Krejčí; 1/8 + 4/36
Petr Svoboda; 36%
Martin Novotná; 32/68 + 37/92
Jiří Němcová; 86%
Eva Veselý; 10/10
František Procházka; 25/33
Milan Novák; 3/6
