Alena Svoboda; 16% + 12% + 26%
Jiří Svoboda; 2/12 + 22/52
Tomáš Novotná; 2/7
Lenka Němec; 8/15
František Krejčí; 65% + 23%
Pavel Procházková; 28% + 9% + 20%
Věra Nováková; 22% + 28%
Pavel Novák; 9% + 86%
Anna Marek; 38%
Petr Černá; 31% + 2% + 28%
František Kučera; 29/32
Josef Marek; 26% + 68%
Alena Veselá; 19%
