Milan Pospíšilová; 7% + 29%
Alena Veselá; 1% + 4%
Michal Pokorná; 10/45
Věra Horák; 11/15
Lucie Krejčí; 1% + 16% + 21%
Jana Marková; 31% + 7% + 15%
Lucie Dvořáková; 23% + 23% + 11%
Jaroslav Krejčí; 96%
Josef Pospíšilová; 2/92 + 40/80
František Novotný; 3/44 + 20/78
