Jan Dvořáková; 0% + 2%
Hana Dvořák; 79%
Hana Veselá; 24/58 + 1/4
Tomáš Procházka; 13/17
Jiří Veselý; 8% + 8% + 15%
Zdeněk Novák; 11% + 57%
Alena Marek; 11/34 + 19/54
Lucie Veselá; 15% + 0% + 20%
Jaroslav Novotný; 32% + 50%
Věra Marková; 2% + 59%
František Veselý; 48/48
Tomáš Černá; 5/6
František Horák; 6/6
Tomáš Procházková; 62%
Tomáš Svobodová; 7/50 + 6/16
Miroslav Novotný; 18% + 36%
Lucie Veselý; 46/50
