Věra Kučera; 23%
Josef Němec; 94%
Jiří Krejčí; 28/96 + 3/14
Jana Svobodová; 26% + 23% + 16%
Eva Kučerová; 8% + 20% + 22%
Věra Němec; 28%
Tomáš Němec; 54%
Josef Svoboda; 0% + 2%
Jiří Marek; 29% + 3% + 27%
Marie Svoboda; 6%
Josef Pospíšilová; 16/56 + 6/48
Zdeněk Horák; 27%
Tomáš Černá; 12%
Tomáš Horák; 35%
Lenka Marek; 16%
František Dvořáková; 14/15
Tomáš Veselá; 2/4
Jana Veselý; 86%
