Jan Černý; 26% + 19%
Kateřina Černá; 14/26
Lucie Svobodová; 75%
Lucie Novák; 16%
Eva Dvořák; 5% + 15% + 3%
Pavel Veselá; 88%
Lucie Novotný; 12% + 55%
Petr Svobodová; 20/24
Jaroslav Dvořák; 23%
Marie Marková; 56%
