Václav Krejčí; 7%
Anna Svoboda; 88%
Jana Dvořák; 21% + 77%
Milan Pospíšilová; 15% + 4% + 17%
Václav Pokorná; 10% + 21% + 15%
Eva Dvořák; 3% + 7%
Hana Marková; 8/47
Tomáš Horáková; 30% + 17% + 11%
Lenka Černá; 31/33
Lenka Svoboda; 3%
Jiří Němec; 32% + 17% + 12%
