Pavel Novotný ;  3/5
Josef Dvořák ;  28/90 + 5/78
Tomáš Marková ;  79%
Věra Svoboda ;  14/32
František Horák ;  92%
Pavel Němcová ;  1/2 + 8/36
Jana Dvořák ;  4/6
Martin Horák ;  20/39
Jiří Svoboda ;  71%
Martin Dvořák ;  11% + 21% + 29%
Zdeněk Krejčí ;  90%
Miroslav Němcová ;  1% + 14% + 15%
Michal Němec ;  14% + 33%
Tomáš Pospíšilová ;  6/16
Hana Veselý ;  30%
