František Dvořáková ;  25% + 5% + 11%
Lenka Černý ;  16% + 26%
Kateřina Novotná ;  3/17
Kateřina Svoboda ;  89%
Zdeněk Novotný ;  9% + 30% + 25%
Miroslav Dvořáková ;  20/30
Anna Svobodová ;  42%
Marie Horáková ;  23/70 + 3/14
Eva Svobodová ;  17/44 + 8/66
Jiří Dvořáková ;  55%
Marie Černý ;  32% + 12% + 27%
Jakub Pokorná ;  6/92 + 4/82
Kateřina Kučera ;  86% + 8%
Miroslav Kučerová ;  5/5
Kateřina Novák ;  9%
