Zdeněk Veselá ;  2/10
Václav Marek ;  9/10
Jan Horáková ;  31/38
Josef Dvořák ;  32% + 32% + 15%
Věra Pospíšilová ;  9/84 + 9/40
Jiří Svobodová ;  34%
Marie Veselá ;  24%
Josef Nováková ;  13% + 32% + 10%
Věra Dvořák ;  89%
Hana Pokorná ;  18% + 16% + 25%
Petr Černý ;  89%
Tomáš Černá ;  31% + 14% + 22%
Lucie Veselá ;  7/8
