František Procházková; 3/14 + 1/72
Alena Procházka; 56%
Zdeněk Novotná; 54%
Václav Novák; 4/7
Jan Novotný; 2% + 5%
Lucie Černá; 26% + 3% + 18%
Zdeněk Pospíšilová; 9/18
Milan Pokorná; 32%
Jiří Nováková; 15/15
Anna Novák; 7%
Kateřina Kučerová; 1% + 20%
Jan Pospíšilová; 24/54 + 25/88
Václav Veselá; 11% + 26% + 18%
