Eva Veselý; 16/34 + 2/94
Josef Kučerová; 3/5
Miroslav Němcová; 59%
Věra Pospíšilová; 24/92 + 6/24
Jaroslav Procházková; 13/24
Jan Kučera; 40% + 34%
Hana Horáková; 13/82 + 1/2
Jakub Marková; 94%
Václav Novotný; 9/26 + 3/16
Jakub Černý; 4/40 + 2/14
Václav Horáková; 6/30
Věra Novák; 77% + 6%
Milan Pokorná; 5/36
