František Němcová; 16%
Hana Nováková; 53%
Marie Kučera; 21% + 72%
Alena Pokorná; 67% + 26%
Věra Procházková; 6/58 + 14/74
Martin Černý; 10/72 + 3/74
Anna Procházka; 22/92 + 15/30
Milan Kučerová; 3/37
Tomáš Horák; 43%
Miroslav Procházková; 9/11
Josef Krejčí; 56%
Pavel Kučerová; 27%
Milan Svobodová; 35/72 + 6/24
