František Marková; 2/9
Marie Krejčí; 31% + 24%
Tomáš Svoboda; 4/30 + 36/74
Marie Veselý; 16/34 + 1/2
Zdeněk Marková; 7% + 26% + 5%
Tomáš Svobodová; 30% + 20% + 4%
Tomáš Horáková; 86%
Lucie Krejčí; 1/38 + 1/2
Jan Svobodová; 9%
František Marek; 30% + 32% + 26%
Jaroslav Krejčí; 34% + 63%
Zdeněk Marková; 66%
