Jaroslav Marek ;  19% + 11% + 31%
Marie Dvořáková ;  14/50 + 3/60
Jana Dvořáková ;  55% + 1%
Josef Kučera ;  16/40
Jana Marková ;  68%
Kateřina Němec ;  7/25
Tomáš Horáková ;  25/42
Marie Procházka ;  1%
Anna Svobodová ;  18/47
Martin Černá ;  10/14
Josef Němec ;  51%
Lucie Procházková ;  47%
Lenka Kučerová ;  22% + 7% + 7%
