Tomáš Novák; 47%
Petr Procházková; 25% + 4% + 32%
Marie Němcová; 69%
Kateřina Veselá; 33/100 + 22/50
Josef Dvořáková; 7%
Martin Novotný; 1% + 30% + 18%
Zdeněk Novotná; 6/21
Václav Dvořáková; 20/80 + 9/68
Alena Němcová; 4/10 + 5/24
Jiří Marková; 2/18 + 1/2
Věra Nováková; 4% + 14%
Marie Horáková; 27% + 25% + 8%
Miroslav Dvořák; 39%
Jiří Svobodová; 4/43
Michal Svoboda; 11/48 + 19/44
Jaroslav Dvořák; 98%
Václav Svoboda; 12%
Marie Kučerová; 25%
František Pokorná; 17%
