Tomáš Dvořák ;  5/18
Josef Pospíšilová ;  7/7
Zdeněk Novotný ;  9/49
Miroslav Veselá ;  3/3
Jaroslav Nováková ;  2/2
Alena Nováková ;  18/34
Jakub Procházka ;  96%
Zdeněk Černá ;  1% + 1%
Miroslav Novák ;  41/94 + 23/80
Věra Černá ;  2/25
Tomáš Svobodová ;  62%
Kateřina Němcová ;  25%
Josef Pokorná ;  22% + 31% + 24%
Eva Nováková ;  30% + 3% + 22%
