Marie Černý ;  87%
Václav Novotná ;  24%
Miroslav Pokorná ;  9%
Petr Kučera ;  20% + 18% + 1%
František Pospíšilová ;  39%
Josef Krejčí ;  41%
Jan Svoboda ;  90%
František Horáková ;  1/7
Martin Pokorná ;  24/35
Lucie Marková ;  2/13
Věra Veselý ;  82%
Lenka Pospíšilová ;  16%
