Kateřina Marek ;  36/74 + 13/64
Jana Krejčí ;  18/80 + 35/96
Kateřina Marková ;  8% + 10% + 32%
Jakub Marek ;  15% + 18% + 16%
Eva Pokorná ;  33/41
Petr Svoboda ;  6/47
Lucie Procházková ;  16% + 15% + 19%
Tomáš Veselá ;  11/30
Tomáš Pospíšilová ;  40%
Marie Novotná ;  45%
Lucie Nováková ;  12/30 + 4/54
František Nováková ;  3/22 + 14/48
