Lenka Pokorná; 6/12 + 5/54
Alena Kučera; 30% + 56%
Jana Němcová; 51%
Petr Svoboda; 36/47
Eva Svobodová; 55%
Pavel Pokorná; 19/44
Eva Novotný; 59%
Jan Veselá; 29%
Marie Veselá; 88%
Kateřina Novák; 35/44
Zdeněk Krejčí; 13/33
Věra Dvořáková; 24%
Martin Procházková; 12/22
Alena Procházková; 1/11
Věra Němcová; 90%
Michal Černá; 49% + 15%
Jan Horáková; 7/17
