Pavel Dvořák; 36%
Milan Pospíšilová; 1/5
Lucie Kučerová; 5/18 + 18/58
Michal Dvořáková; 15% + 19% + 2%
Pavel Marková; 9%
František Dvořák; 10% + 11% + 11%
Milan Horáková; 31% + 13% + 27%
Michal Svoboda; 82%
Miroslav Novák; 10/24 + 17/90
Jana Nováková; 17/84 + 9/18
Kateřina Němcová; 1/35
Václav Kučera; 13%
Jana Svobodová; 10/10
