Jakub Svoboda; 1/7
Jiří Němec; 12/41
Pavel Pokorná; 3/34
Martin Novotný; 30/76 + 17/84
Anna Marková; 10/10
Jaroslav Němec; 44%
Jakub Marek; 67%
Pavel Horák; 81%
Hana Veselá; 11/38 + 11/24
Věra Dvořáková; 9%
