Lenka Veselá; 22/64 + 20/94
Eva Novotná; 27% + 3%
Zdeněk Krejčí; 67%
Lenka Procházka; 5/15
Tomáš Černá; 5/20 + 32/80
Jaroslav Krejčí; 8%
Jiří Procházková; 5/24 + 4/44
Jaroslav Černá; 69%
Hana Němcová; 52%
Anna Svoboda; 7/33
Anna Černý; 1/28
Lenka Horáková; 43%
Pavel Kučerová; 65%
Milan Pospíšilová; 84%
Lenka Krejčí; 17% + 1% + 7%
Michal Novák; 69%
Jiří Dvořák; 40% + 33%
