Lucie Nováková ;  6% + 10%
Lucie Dvořák ;  20% + 25%
Jiří Svoboda ;  18% + 50%
František Pospíšilová ;  74%
Tomáš Svobodová ;  4/5
Martin Svobodová ;  3/21
Jiří Dvořáková ;  27/41
Václav Němec ;  2/11
Tomáš Pokorná ;  60%
Michal Novotný ;  10/11
Kateřina Svobodová ;  6% + 6%
Martin Procházková ;  41%
Eva Novotný ;  4% + 10% + 30%
František Svobodová ;  14% + 23%
Kateřina Horáková ;  38/82 + 27/86
Anna Procházková ;  79%
