Michal Procházková ;  24/40
Eva Svobodová ;  37/96 + 1/4
Pavel Černá ;  52%
Hana Krejčí ;  17%
Petr Novák ;  9% + 21%
Pavel Horák ;  5/10
Lenka Marek ;  0%
Milan Pokorná ;  24% + 30% + 19%
Josef Svobodová ;  1/1
Jakub Novotný ;  4% + 18% + 19%
Jan Procházková ;  81%
