Tomáš Horák; 2/50 + 1/20
Kateřina Novák; 16/32 + 2/76
Lenka Němcová; 25% + 7% + 31%
Zdeněk Procházka; 16/36 + 6/50
Anna Novotná; 38/86 + 21/52
Zdeněk Černá; 7/14 + 36/78
Lenka Černá; 12/24 + 5/26
Jan Veselý; 9/21
Martin Svoboda; 14% + 60%
František Marková; 53% + 21%
Eva Němec; 68%
Martin Novák; 24/54 + 6/20
Jakub Krejčí; 3/3
Hana Černá; 3%
Zdeněk Kučera; 12/13
Jana Černý; 58%
Tomáš Marek; 5% + 11% + 12%
