Tomáš Novotný; 11/18
Jan Novotný; 24%
Milan Krejčí; 30%
Anna Novotný; 27% + 16% + 10%
Miroslav Kučera; 1/1
Zdeněk Horáková; 5/5
Tomáš Horák; 6% + 31%
Anna Pokorná; 8/16
Hana Němec; 0% + 26%
Zdeněk Kučerová; 16/46 + 22/84
Tomáš Svoboda; 17% + 4% + 0%
František Veselá; 55%
Jan Krejčí; 87%
