Jana Veselá; 59%
Alena Pospíšilová; 3/24 + 7/20
Milan Černý; 63% + 4%
Anna Horák; 25/36
Jan Pokorná; 13%
Anna Krejčí; 13% + 29% + 1%
Michal Horáková; 29% + 10% + 21%
Marie Pospíšilová; 20% + 26% + 28%
Hana Marková; 1/8 + 16/48
Petr Pospíšilová; 14/21
Petr Marek; 4% + 48%
Miroslav Nováková; 30% + 21% + 13%
