Lucie Kučerová ;  27%
Věra Němcová ;  5/38
Jan Veselý ;  23/46 + 45/90
Jiří Pokorná ;  13% + 32% + 10%
Miroslav Němec ;  8% + 23% + 15%
Jakub Pospíšilová ;  4/5
Petr Svobodová ;  29% + 9%
Miroslav Pokorná ;  2%
Alena Kučerová ;  21% + 62%
Marie Kučera ;  13% + 21% + 29%
Petr Němcová ;  21%
Alena Marková ;  17%
Michal Veselý ;  8/42 + 36/84
Václav Procházka ;  2/2
Milan Černý ;  2/6
