Lenka Novotný; 4% + 27% + 14%
Václav Marková; 10/23
Marie Horák; 5/10 + 16/96
Věra Černá; 26%
Jakub Kučera; 14% + 39%
Martin Černý; 5/20 + 24/100
Lucie Dvořáková; 4/22
Miroslav Pokorná; 15% + 6%
Jakub Kučerová; 1/2 + 33/74
František Pokorná; 98%
Petr Pokorná; 18% + 12% + 23%
Tomáš Svoboda; 1/1
František Horák; 2/14 + 4/86
Kateřina Novák; 7% + 13% + 30%
