Tomáš Svoboda ;  9% + 22% + 24%
Tomáš Veselý ;  71%
Tomáš Procházková ;  15% + 13%
Eva Kučerová ;  7%
Jan Černá ;  25/86 + 5/50
Jiří Kučera ;  15/86 + 5/14
Pavel Němcová ;  36% + 60%
Eva Novák ;  42% + 36%
Michal Němcová ;  20% + 23% + 30%
Zdeněk Veselá ;  1/10
Eva Svobodová ;  16%
Jiří Horáková ;  65%
Jakub Novotný ;  9/45
Tomáš Horáková ;  76%
Eva Dvořák ;  9%
Kateřina Novák ;  1% + 29%
