Pavel Horák; 54%
Petr Horák; 13% + 27% + 24%
Josef Dvořák; 1/1
Alena Novák; 1/18
Lenka Procházka; 6/37
Hana Dvořák; 16%
Lenka Svobodová; 80%
Lenka Veselý; 0% + 19% + 0%
Jan Novotná; 30% + 4% + 19%
Jaroslav Novotný; 17/28
Jaroslav Veselá; 27% + 16% + 10%
