Jana Marek ;  8/42 + 2/8
Lucie Horáková ;  14/22
Jan Veselá ;  23%
Lenka Němcová ;  49%
Jana Kučera ;  4%
Kateřina Procházková ;  19/30
Milan Kučera ;  99%
Josef Novotný ;  93%
Jan Svobodová ;  3/5
Eva Černý ;  16% + 4% + 31%
Miroslav Černý ;  12% + 11% + 23%
Jana Novotná ;  6/40 + 34/88
Jan Svobodová ;  25/26
Jaroslav Černá ;  26%
Marie Horák ;  83% + 12%
Jana Horák ;  10/42 + 5/44
Jaroslav Němcová ;  11/15
Martin Procházka ;  49/98 + 13/66
