Josef Novotný ;  89% + 4%
Jiří Němcová ;  32/36
Jaroslav Novotný ;  34% + 10%
Pavel Horáková ;  14% + 9% + 19%
Alena Novák ;  16/41
Alena Kučera ;  5%
Věra Dvořáková ;  30/38
Jan Pokorná ;  69% + 15%
Pavel Černá ;  86%
Věra Veselý ;  20/62 + 1/4
Václav Novotný ;  26% + 21% + 27%
Zdeněk Dvořák ;  10/32 + 3/10
Pavel Kučerová ;  63%
Jana Krejčí ;  21/44
František Svoboda ;  10% + 1% + 5%
Lucie Svoboda ;  1/16 + 31/64
Martin Horák ;  72%
Jan Svobodová ;  21/27
Jaroslav Veselý ;  34/34
