František Němcová; 63% + 22%
František Horáková; 2/17
Lucie Novák; 13% + 13% + 7%
Pavel Černý; 3% + 27%
Jana Horáková; 9/13
Anna Marková; 43/49
Hana Marek; 26/38
Petr Černý; 96%
Michal Procházka; 18/88 + 43/94
Martin Němcová; 19% + 18% + 8%
Milan Marková; 77% + 15%
