Jaroslav Krejčí ;  35/100 + 38/94
Josef Černý ;  1/15
Martin Novotná ;  28% + 56%
Josef Němcová ;  2% + 11% + 5%
Martin Pospíšilová ;  34%
Pavel Marková ;  68%
Jiří Němec ;  29/96 + 13/30
Jan Němec ;  3% + 26% + 18%
Jakub Veselý ;  5%
Josef Horák ;  42%
Hana Veselá ;  26%
Kateřina Krejčí ;  3% + 20% + 24%
Alena Novotná ;  17%
Zdeněk Nováková ;  66%
Jiří Černý ;  2% + 23% + 10%
Lenka Veselá ;  89%
Eva Němec ;  13% + 21% + 5%
Zdeněk Nováková ;  7/24 + 2/12
Věra Krejčí ;  27%
