Kateřina Svoboda ;  0% + 7%
Lucie Novák ;  12/26
Tomáš Novák ;  59% + 1%
Milan Kučerová ;  32% + 17% + 32%
Lenka Svobodová ;  5% + 40%
Eva Svobodová ;  24% + 27% + 3%
Lenka Veselá ;  16% + 51%
Věra Dvořák ;  5/22
Věra Němec ;  12/21
Hana Pokorná ;  47%
