Martin Krejčí; 14/56 + 18/78
Miroslav Veselá; 5% + 6% + 9%
Václav Procházková; 98%
Zdeněk Svobodová; 23/48
Hana Novák; 13%
Eva Novák; 15/17
Alena Marková; 35%
Michal Kučera; 18/48 + 29/68
Jana Pokorná; 2/2
Pavel Marková; 2% + 5%
Alena Nováková; 72%
Eva Novotný; 9/36 + 38/82
Jakub Pokorná; 19/19
Jiří Svobodová; 3/10 + 24/50
František Pokorná; 2/8
Věra Horák; 7% + 13%
Pavel Procházka; 15/46 + 36/84
Lenka Novotná; 18/49
