Václav Marková; 24%
Eva Marková; 16/26
Jiří Marková; 33%
Jan Pospíšilová; 97%
Milan Veselý; 17/38 + 3/8
Petr Horáková; 12% + 3%
Tomáš Procházková; 1/5
Eva Němec; 7% + 20% + 12%
Lenka Novák; 2% + 3%
Anna Dvořáková; 39/49
Václav Marková; 5/7
Martin Horák; 5% + 18% + 11%
Michal Horák; 3% + 23% + 22%
Jan Krejčí; 1/2
Marie Veselý; 3/6
Eva Veselá; 34/47
Hana Němcová; 1/3
Jakub Novotný; 70% + 1%
Jiří Němcová; 0% + 29%
