Hana Marek ;  10/58 + 9/52
Václav Němec ;  4/4
Lucie Dvořák ;  13/34 + 14/52
Jakub Marková ;  3/30
Petr Procházka ;  37/41
Anna Veselý ;  36%
Jakub Černý ;  30% + 9% + 31%
Martin Kučera ;  10/38
Tomáš Svoboda ;  68%
Jaroslav Němcová ;  37%
Alena Němec ;  31% + 12% + 30%
Pavel Veselý ;  86% + 12%
Lenka Svoboda ;  1/13
Lucie Svoboda ;  31% + 25% + 18%
