Alena Nováková; 8/52 + 1/28
Marie Pospíšilová; 5/52 + 10/68
Martin Kučerová; 2% + 3%
Pavel Černý; 1/4 + 4/52
Tomáš Němec; 27% + 21% + 6%
Jana Nováková; 9/11
Václav Nováková; 23/46
Josef Marková; 3/4
Miroslav Pokorná; 1/18 + 2/4
Anna Nováková; 12/33
Tomáš Kučerová; 11%
Václav Pokorná; 22/49
Petr Marková; 2/28 + 11/30
Petr Němec; 21% + 22% + 15%
