Václav Nováková ;  5/36 + 23/92
Jiří Němcová ;  1% + 1%
Eva Dvořák ;  98%
Jana Nováková ;  5/28 + 4/76
František Veselá ;  3/23
Eva Horák ;  21%
Marie Kučera ;  19/30
Petr Pospíšilová ;  9/26
Jakub Svoboda ;  30%
Václav Novotná ;  32%
František Veselý ;  13/40
Jiří Horák ;  6/6
Josef Svoboda ;  25% + 52%
Marie Černá ;  5/49
Alena Dvořáková ;  4% + 2%
Josef Novotný ;  1/4
