František Svoboda; 1/14 + 24/68
Eva Černý; 8%
Petr Procházka; 2/22
Jiří Černý; 87%
Zdeněk Procházková; 13% + 7% + 5%
Miroslav Marková; 47%
Zdeněk Kučera; 22/56 + 7/34
Petr Pokorná; 22% + 1%
Jan Kučera; 22/38
Martin Černý; 22% + 8% + 15%
Pavel Veselý; 97%
Petr Procházková; 6/18 + 14/44
