Jiří Marek ;  17% + 4%
Lenka Němec ;  28% + 23% + 3%
Eva Veselá ;  10/44
František Němcová ;  7%
Kateřina Kučerová ;  31%
Tomáš Svoboda ;  71%
Zdeněk Novotný ;  7% + 31% + 12%
Věra Marková ;  25% + 25% + 19%
Jaroslav Němec ;  43%
Jaroslav Kučerová ;  58%
Věra Horák ;  28/33
Jan Kučera ;  2/28 + 24/92
Jakub Pokorná ;  46% + 4%
Lenka Svobodová ;  23/52 + 3/12
Jan Novák ;  0% + 14%
Miroslav Kučera ;  59%
Miroslav Marek ;  14/52 + 1/2
Hana Novotný ;  72%
Jakub Kučerová ;  12% + 33%
