Anna Novotný ;  49% + 37%
Martin Horáková ;  23%
Hana Pospíšilová ;  45/98 + 3/48
Kateřina Marek ;  20/52 + 9/50
Jan Nováková ;  24/33
Milan Procházka ;  14% + 17%
Kateřina Svoboda ;  70%
Lucie Novotný ;  40%
Alena Němcová ;  6/24
Jiří Procházková ;  57%
Jakub Procházka ;  75%
Marie Novotný ;  21%
Václav Němec ;  16% + 24% + 24%
Josef Procházková ;  1%
Lucie Pokorná ;  59%
Miroslav Horáková ;  12/42
Lucie Pospíšilová ;  20/36
Jakub Procházková ;  0% + 9%
Jaroslav Horáková ;  20/35
