Lucie Černá; 8%
Pavel Svoboda; 12/20
Jaroslav Pokorná; 2/24
Miroslav Novotná; 80%
Alena Procházka; 6/60 + 2/4
Jaroslav Dvořák; 79%
Lenka Černý; 18%
Alena Marek; 12/26 + 35/80
Jan Svobodová; 1/28
Jaroslav Pospíšilová; 14/54 + 14/74
Hana Nováková; 20/24
