Jakub Nováková ;  16/42 + 4/92
Tomáš Svobodová ;  88%
Martin Veselá ;  60%
Petr Černá ;  64%
Věra Procházková ;  31% + 56%
Hana Novotný ;  41/46
Jiří Kučerová ;  40%
Michal Pokorná ;  1/15
Jana Svobodová ;  2% + 2%
Věra Marek ;  35%
Michal Veselý ;  3/7
Alena Marková ;  7/35
Milan Dvořáková ;  10/24 + 2/44
Hana Kučera ;  37/46
Jaroslav Novák ;  14/31
Milan Němcová ;  2% + 6% + 14%
Alena Dvořáková ;  77%
