Tomáš Krejčí; 45%
Věra Kučerová; 8/20 + 8/28
Jana Pokorná; 14%
Věra Horáková; 37%
Jakub Kučerová; 76%
František Kučerová; 21% + 25% + 15%
Miroslav Pokorná; 51%
Eva Veselý; 27% + 18% + 28%
Zdeněk Černá; 9/10
Michal Krejčí; 56%
Lucie Marek; 21% + 9% + 3%
Zdeněk Nováková; 24%
