Josef Němcová ;  30% + 56%
Pavel Kučera ;  28/84 + 17/72
Jana Černá ;  10/72 + 8/34
Alena Pokorná ;  22% + 73%
Pavel Novotná ;  85%
Milan Horák ;  37%
Marie Dvořáková ;  3% + 16%
Petr Veselý ;  86%
Jana Horáková ;  32% + 19%
Alena Kučera ;  39/40
Pavel Černá ;  54%
Jiří Marková ;  71%
Jana Pokorná ;  2/8
Jana Černá ;  27%
Jan Novák ;  19%
Petr Novotný ;  8/18 + 3/24
Jaroslav Krejčí ;  87%
