Anna Procházková ;  6/54 + 31/62
Miroslav Procházka ;  1% + 8%
Lucie Horák ;  27% + 22% + 7%
Alena Pospíšilová ;  21% + 25% + 26%
Tomáš Novotná ;  10/32
Hana Dvořáková ;  4% + 56%
Tomáš Procházková ;  90%
Martin Černý ;  2% + 36%
Lenka Veselá ;  11/19
Kateřina Marek ;  57%
Václav Veselá ;  1/30
Lucie Krejčí ;  8/48
Martin Kučera ;  10/30 + 4/8
Lenka Veselá ;  43%
