Tomáš Němec ;  16% + 8%
Tomáš Marková ;  30%
Michal Novotná ;  31% + 51%
Zdeněk Novák ;  49%
Jiří Horáková ;  5/45
Tomáš Černý ;  66%
Tomáš Novotná ;  8/15
Anna Kučera ;  43%
Marie Němcová ;  7% + 23% + 18%
Miroslav Procházková ;  32/82 + 6/36
Jan Horák ;  28/76 + 1/26
Milan Němcová ;  18% + 40%
Jiří Kučera ;  1% + 92%
Petr Dvořáková ;  4% + 29% + 4%
Věra Horák ;  0% + 17% + 21%
Jaroslav Pospíšilová ;  28/42
Michal Procházková ;  69%
