Michal Procházka ;  8% + 76%
Milan Svoboda ;  2/34
Miroslav Němcová ;  72%
Jan Procházková ;  42/92 + 7/60
Jana Pokorná ;  37% + 28%
Jaroslav Procházková ;  51% + 3%
Václav Veselá ;  11/19
Hana Kučera ;  28%
Lenka Marková ;  27%
Tomáš Němcová ;  15/41
Hana Veselá ;  27%
Miroslav Svobodová ;  7/20
Marie Procházková ;  25% + 5% + 2%
Lucie Veselý ;  16/82 + 9/24
Milan Procházková ;  19/27
