Tomáš Novotný; 20/24
Pavel Veselý; 26%
Hana Novotný; 20/39
Hana Novák; 9% + 16%
Zdeněk Kučerová; 28%
Martin Pokorná; 34% + 25%
Jaroslav Marková; 23% + 5% + 27%
Martin Novotný; 49%
Milan Němcová; 42%
Lenka Novotný; 31/39
