Jana Novotný; 19/37
František Černý; 1/8
Michal Černá; 18%
Kateřina Marek; 66%
Jakub Svobodová; 24% + 4% + 1%
Jana Dvořáková; 3% + 6% + 25%
Václav Svobodová; 2/46 + 31/76
Věra Kučera; 22%
Jana Krejčí; 17/35
Jana Marková; 2% + 2% + 10%
Jaroslav Novotná; 2/5
Pavel Černý; 23% + 5%
