Tomáš Novotná ;  19% + 16% + 17%
Zdeněk Horáková ;  19/37
Anna Němec ;  26% + 29% + 21%
Věra Horáková ;  20% + 13% + 13%
Věra Kučera ;  31% + 12% + 28%
Miroslav Novotný ;  8/26 + 12/50
Petr Černá ;  4/8
Petr Marková ;  21% + 5% + 18%
Eva Horáková ;  13%
Pavel Černá ;  66%
Hana Veselý ;  7/25
Zdeněk Marková ;  14/42
Kateřina Dvořáková ;  94%
Lenka Horáková ;  1/24 + 18/46
Jana Novotný ;  2/45
Alena Dvořáková ;  31% + 6% + 17%
Milan Novák ;  9% + 11%
Pavel Krejčí ;  1%
