Zdeněk Novotná ;  39/43
Václav Dvořáková ;  10/98 + 8/74
Alena Marek ;  18% + 36%
Pavel Veselý ;  48/96 + 13/34
Hana Svoboda ;  2/18
Jan Pospíšilová ;  89%
Lenka Kučerová ;  47/50
Jakub Černý ;  19%
Hana Nováková ;  48%
Lenka Nováková ;  15/31
Václav Pokorná ;  30%
Jan Novotná ;  69%
Miroslav Procházka ;  6% + 48%
Jiří Dvořák ;  26% + 0% + 12%
Martin Veselý ;  14/62 + 29/82
Jiří Krejčí ;  13/27
Tomáš Marková ;  13/21
