Tomáš Procházková ;  16% + 32% + 25%
Lucie Dvořáková ;  19% + 2% + 28%
Zdeněk Marek ;  8% + 19% + 15%
Jana Černá ;  32/32
Jana Pospíšilová ;  14/49
Martin Němec ;  58%
Josef Marek ;  1/20 + 8/22
Alena Nováková ;  10/40 + 20/74
Hana Pokorná ;  16% + 5% + 18%
Jiří Svobodová ;  16% + 17% + 28%
Lenka Kučerová ;  41% + 29%
Tomáš Černý ;  43%
