Václav Nováková; 10/31
Václav Veselý; 27/32
Věra Horák; 8/11
Miroslav Veselá; 8%
Jiří Kučera; 7/11
Lenka Novotný; 22% + 16% + 17%
Michal Horáková; 21% + 26% + 2%
Václav Němcová; 17% + 45%
Lenka Pokorná; 13%
Jakub Nováková; 63%
Marie Novotný; 20% + 19% + 4%
Miroslav Pokorná; 27/33
Michal Černý; 28/31
Kateřina Novotná; 22%
Alena Marek; 10/22 + 3/38
Alena Horák; 12% + 19% + 4%
