Tomáš Dvořák ;  27% + 17% + 9%
Věra Nováková ;  7/24
Pavel Svoboda ;  6/17
Věra Pospíšilová ;  69%
Václav Pokorná ;  3/6 + 9/36
Kateřina Němec ;  38/45
Tomáš Pokorná ;  13/26 + 47/98
Věra Veselá ;  2/18 + 7/20
Jaroslav Černá ;  79% + 3%
Michal Nováková ;  11/39
Zdeněk Kučera ;  9% + 58%
Jana Procházková ;  1/1
