Jan Svobodová; 18%
Jana Dvořák; 12% + 11%
Hana Němec; 17/46 + 42/86
Lucie Svoboda; 26%
Hana Němec; 7% + 2% + 11%
Jan Procházková; 90%
Michal Procházková; 10/46 + 21/74
Michal Novotná; 25/28
Jaroslav Novotný; 1/18
Tomáš Pokorná; 10% + 9%
Michal Marek; 11/34 + 3/8
Jakub Novák; 17/32
Jan Nováková; 29/70 + 14/70
