Hana Marek; 4% + 7%
Michal Procházková; 1%
František Dvořák; 34% + 21%
Jan Veselý; 2/10
Pavel Procházka; 17% + 48%
Eva Veselý; 16% + 18% + 4%
Anna Černý; 20%
Jana Svobodová; 42%
Tomáš Černý; 14/42
Pavel Svobodová; 98%
Milan Svobodová; 14/19
Anna Horáková; 37%
Miroslav Němcová; 1/34 + 36/90
Jana Kučerová; 10/40
Jaroslav Pospíšilová; 16% + 8% + 6%
Pavel Černý; 4/34 + 6/28
