Jan Pokorná ;  5% + 4%
Tomáš Marek ;  28/60 + 2/10
Lucie Veselý ;  17/34
Věra Černá ;  5/28 + 10/84
Marie Němec ;  14% + 5% + 13%
Marie Dvořáková ;  64% + 26%
Jakub Černý ;  34/48
Josef Novotný ;  26/27
Michal Novák ;  34/37
Hana Novák ;  24%
Zdeněk Černý ;  30% + 14%
Lenka Veselá ;  5/45
Jiří Pospíšilová ;  1/5
František Procházka ;  0% + 5%
Pavel Horáková ;  98%
Zdeněk Černá ;  17/19
Marie Marková ;  23% + 20% + 18%
Eva Svobodová ;  35%
