Zdeněk Dvořák; 26% + 52%
Pavel Novák; 25% + 17%
Miroslav Horáková; 28% + 39%
Zdeněk Pokorná; 34%
Marie Novák; 19% + 29% + 11%
Jakub Veselá; 19% + 14% + 27%
Jana Němcová; 15% + 25%
Josef Nováková; 10/20 + 2/8
Eva Marková; 6% + 22%
Petr Novotná; 20/47
Michal Procházka; 15/29
Věra Novák; 0% + 36%
Martin Kučerová; 29% + 9%
